-- http://www.fredrikolofsson.com/f0blog/?q=node/537 (f0)
let a i j k l = LfPar i j * k + l
    f = a 1 0 5 (a [0.05, 0.04] 0 50 160 `RoundTo` 50)
    w = a 0.2 0 0.5 (a 3 0 0.2 0.5)
    o = VarSaw f 0 w / 8
in GVerb o 80 3 0.5 0.5 15 1 0.7 0.5 300 * 0.1
