-- Dx7 ; event control ; data at local buffer
let vc = [ [25, 21, 98, 38, 99,  0, 99,  0, 36, 17, 87, 2, 1, 0, 0, 0, 59, 0,  1, 1, 8]
         , [66, 69, 60, 35,  0,  0, 98,  0,  0,  0,  4, 0, 0, 0, 0, 1, 90, 0,  1, 0, 8]
         , [25, 21, 98, 38, 99,  0, 99,  2, 35, 15, 79, 3, 1, 1, 0, 0, 91, 1,  0, 0, 6]
         , [97, 69, 60, 35, 99, 91, 98,  0,  0,  0,  0, 0, 0, 0, 0, 1, 68, 0, 22, 0, 7]
         , [78, 63, 53, 28, 99, 52, 62,  3, 38, 11, 80, 3, 0, 0, 0, 0, 77, 0,  7, 0, 0]
         , [98, 56, 63, 23, 99, 89, 74,  2,  0,  4,  1, 0, 0, 0, 0, 0, 99, 0,  1, 0, 7]
         , [99, 99, 99, 99, 50, 50, 50, 50, 3, 2, 1, 29, 99, 1, 0, 0, 0, 1, 24]]
    buf = asLocalBuf (concat vc)
    f g x _y z o _rx _ry p _px _py =
      Pan2 (Dx7 buf g 0 0 0 p z (0x2000 * (x - Latch x g)) 0 0 0) (o * 2 - 1) 1
in Mix (Voicer 16 f)
